Работа про проекту
…
data %>% arrange(-Length) %>% slice(round(nrow(data)*0.92,2)) %>% select(Length) -> ans
paste("Answer is",ans,sep = " ")

## [1] "Answer is 0.335"

Задание 6

Описание: Создай новую переменную Lenght_z_scores и сохрани в нее значения переменной Length после её стандартизации.

Решение:

data$Length_z_scores <- scale(data$Length)
tbl_df(data[,c(3,11)])

## # A tibble: 4,176 x 2
##    Length Length_z_scores[,1]
##     <dbl>               <dbl>
##  1  0.575               0.424
##  2  0.385              -1.16 
##  3  0.475              -0.409
##  4  0.665               1.17 
##  5  0.28               -2.03 
##  6  0.22               -2.53 
##  7  0.72                1.63 
##  8  0.55                0.216
##  9  0.235              -2.41 
## 10  0.4                -1.03 
## # … with 4,166 more rows
…
